<?xml version="1.0" encoding="utf-8"?>
<!-- Generator: Adobe Illustrator 16.0.0, SVG Export Plug-In . SVG Version: 6.00 Build 0)  -->
<!DOCTYPE svg PUBLIC "-//W3C//DTD SVG 1.1//EN" "http://www.w3.org/Graphics/SVG/1.1/DTD/svg11.dtd">
<svg version="1.1" id="Layer_1" xmlns="http://www.w3.org/2000/svg" xmlns:xlink="http://www.w3.org/1999/xlink" x="0px" y="0px"
	 width="2000px" height="2000px" viewBox="0 0 2000 2000" enable-background="new 0 0 2000 2000" xml:space="preserve">
<g>
	<g>
		<path fill="#545758" d="M752,1092c6,82,20,162,40,238c58,48,222,150,522,150c308,0,454-114,504-162c20-72,32-150,38-226
			c-106,66-280,134-540,134C1046,1226,864,1156,752,1092z"/>
		<path fill="#545758" d="M1858,882c-4-82-16-160-30-230c-82,64-242,146-514,146c-280,0-452-82-536-142c-14,72-24,152-28,236
			c46,42,216,168,566,168C1674,1062,1824,922,1858,882z"/>
		<path fill="#F16228" d="M838,1450c36,78,86,146,150,200c62,50,182,86,310,90l0,0c2,0,4,0,6,0s4,0,6,0l0,0c128-4,248-38,310-90
			c66-54,114-124,152-202c-92,54-238,108-456,108C1088,1556,934,1502,838,1450z"/>
		<path fill="#F16228" d="M1810,570c-20-78-46-138-68-168c-102-136-388-140-436-140s-334,6-436,140c-24,32-50,94-70,176
			c62,48,224,146,518,146C1606,722,1752,622,1810,570z M976,430c0-52,148-96,328-96c182,0,328,42,328,96c0,52-148,96-328,96
			C1122,526,976,482,976,430z"/>
		<circle fill="#F16228" cx="992" cy="1108" r="56"/>
		<circle fill="#F16228" cx="1304" cy="1142" r="56"/>
		<circle fill="#F16228" cx="1618" cy="1108" r="56"/>
		<path fill="#545758" d="M606,802c0-118-66-218-158-252V432h12c14,0,26-12,26-26V304c0-14-12-26-26-26H292c-14,0-26,12-26,26v102
			c0,14,12,26,26,26h12v118c-92,36-158,134-158,254v2c0,2,0,2,0,4v824c0,44,36,78,82,78h300c44,0,82-36,82-78V808c0-2,0-2,0-4
			C604,804,606,802,606,802z M468,1364c0,30-24,54-54,54H260c-30,0-54-24-54-54v-92h260v92H468z M468,1168H208V874c0-30,24-54,54-54
			h154c30,0,54,24,54,54v294H468z"/>
	</g>
</g>
</svg>
